// Jest Snapshot v1, https://goo.gl/fbAQLP

exports[`should render an Uncontrolled Tab with initialization 1`] = `
<div>
  <div
    class="tab-container"
  >
    <ul
      class="tab-header"
    >
      <li
        class="tab-title "
      >
        Uncontrolled A
      </li>
      <li
        class="tab-title active"
      >
        Uncontrolled B
      </li>
    </ul>
    <article
      class="tab-content tab-number-1"
    >
      <div
        class="tab-pane"
      >
        something B
      </div>
    </article>
  </div>
</div>
`;

exports[`should render an Uncontrolled Tab with initialization 2`] = `
<div>
  <div
    class="tab-header"
  >
    <div
      class="tab-title"
    >
      <input
        id="tab-1"
        name="title"
        type="radio"
        value="Controlled A"
      />
      <label
        for="tab-1"
      >
        Controlled A
      </label>
    </div>
    <div
      class="tab-title"
    >
      <input
        checked=""
        id="tab-2"
        name="title"
        type="radio"
        value="Controlled B"
      />
      <label
        for="tab-2"
      >
        Controlled B
      </label>
    </div>
  </div>
  <article
    class="tab-content"
  >
    <div
      class="tab-pane"
    >
      something B
    </div>
  </article>
</div>
`;

exports[`should render an Uncontrolled Tab without initialization 1`] = `
<div>
  <ul
    class="tab-header"
  >
    <li
      class="tab-title active"
    >
      Uncontrolled A
    </li>
    <li
      class="tab-title "
    >
      Uncontrolled B
    </li>
  </ul>
  <article
    class="tab-content tab-number-0"
  >
    <div
      class="tab-pane"
    >
      something A
    </div>
  </article>
</div>
`;

exports[`should render correctly 1`] = `
<div>
  <div
    class="tab-header"
  >
    <div
      class="tab-title"
    >
      <input
        id="tab-1"
        name="title"
        type="radio"
        value="Controlled A"
      />
      <label
        for="tab-1"
      >
        Controlled A
      </label>
    </div>
    <div
      class="tab-title"
    >
      <input
        checked=""
        id="tab-2"
        name="title"
        type="radio"
        value="Controlled B"
      />
      <label
        for="tab-2"
      >
        Controlled B
      </label>
    </div>
  </div>
  <article
    class="tab-content"
  >
    <div
      class="tab-pane"
    >
      something B
    </div>
  </article>
</div>
`;

exports[`should render two tabs with first tab active 1`] = `
<div>
  <ul
    class="tab-header"
  >
    <li
      class="tab-title active"
    >
      Uncontrolled A
    </li>
    <li
      class="tab-title "
    >
      Uncontrolled B
    </li>
  </ul>
  <article
    class="tab-content tab-number-0"
  >
    <div
      class="tab-pane"
    >
      something A
    </div>
  </article>
</div>
`;

exports[`should render two tabs with second tab active using "initialActive" 1`] = `
<div>
  <ul
    class="tab-header"
  >
    <li
      class="tab-title "
    >
      Uncontrolled A
    </li>
    <li
      class="tab-title active"
    >
      Uncontrolled B
    </li>
  </ul>
  <article
    class="tab-content tab-number-1"
  >
    <div
      class="tab-pane"
    >
      something B
    </div>
  </article>
</div>
`;
